<?xml version="1.0" encoding="UTF-8" standalone="no"?>
<svg
   xmlns:sketch="http://www.bohemiancoding.com/sketch/ns"
   xmlns:osb="http://www.openswatchbook.org/uri/2009/osb"
   xmlns:dc="http://purl.org/dc/elements/1.1/"
   xmlns:cc="http://creativecommons.org/ns#"
   xmlns:rdf="http://www.w3.org/1999/02/22-rdf-syntax-ns#"
   xmlns:svg="http://www.w3.org/2000/svg"
   xmlns="http://www.w3.org/2000/svg"
   xmlns:sodipodi="http://sodipodi.sourceforge.net/DTD/sodipodi-0.dtd"
   xmlns:inkscape="http://www.inkscape.org/namespaces/inkscape"
   viewBox="0 0 48 48"
   version="1.1"
   id="svg63"
   sodipodi:docname="icon.svg"
   inkscape:version="0.92.4 (5da689c313, 2019-01-14)">
  <metadata
     id="metadata67">
    <rdf:RDF>
      <cc:Work
         rdf:about="">
        <dc:format>image/svg+xml</dc:format>
        <dc:type
           rdf:resource="http://purl.org/dc/dcmitype/StillImage" />
        <dc:title />
      </cc:Work>
    </rdf:RDF>
  </metadata>
  <sodipodi:namedview
     pagecolor="#ffffff"
     bordercolor="#666666"
     borderopacity="1"
     objecttolerance="10"
     gridtolerance="10"
     guidetolerance="10"
     inkscape:pageopacity="0"
     inkscape:pageshadow="2"
     inkscape:window-width="1360"
     inkscape:window-height="707"
     id="namedview65"
     showgrid="false"
     inkscape:zoom="5.3159964"
     inkscape:cx="33.613081"
     inkscape:cy="12.844919"
     inkscape:window-x="0"
     inkscape:window-y="0"
     inkscape:window-maximized="1"
     inkscape:current-layer="svg63" />
  <defs
     id="defs7">
    <linearGradient
       id="linearGradient3764"
       x1="1"
       x2="47"
       gradientUnits="userSpaceOnUse"
       gradientTransform="matrix(0,-1,1,0,-1.5e-6,47.999998)">
      <stop
         style="stop-color:#c94943;stop-opacity:1"
         id="stop2" />
      <stop
         offset="1"
         style="stop-color:#ce5952;stop-opacity:1"
         id="stop4" />
    </linearGradient>
    <linearGradient
       id="linearGradient840"
       x1="1"
       x2="47"
       gradientUnits="userSpaceOnUse">
      <stop
         style="stop-color:#009cec"
         offset="0"
         id="stop2-3" />
      <stop
         style="stop-color:#00a9ff"
         offset="1"
         id="stop4-6" />
    </linearGradient>
    <linearGradient
       id="linearGradient3800"
       x1="1"
       x2="47"
       gradientUnits="userSpaceOnUse">
      <stop
         style="stop-color:#51627c;stop-opacity:1"
         id="stop2-6" />
      <stop
         offset="1"
         style="stop-color:#596b87;stop-opacity:1"
         id="stop4-1" />
    </linearGradient>
    <linearGradient
       id="linearGradient99"
       x1="1"
       x2="47"
       gradientUnits="userSpaceOnUse">
      <stop
         style="stop-color:#51627c;stop-opacity:1"
         id="stop95" />
      <stop
         offset="1"
         style="stop-color:#596b87;stop-opacity:1"
         id="stop97" />
    </linearGradient>
    <linearGradient
       id="linearGradient3764-2"
       x1="1"
       x2="47"
       gradientUnits="userSpaceOnUse"
       gradientTransform="rotate(-90,23.999998,24)">
      <stop
         style="stop-color:#f2c118;stop-opacity:1"
         id="stop2-8" />
      <stop
         offset="1"
         style="stop-color:#f3c72b;stop-opacity:1"
         id="stop4-9" />
    </linearGradient>
    <linearGradient
       id="linearGradient3764-0"
       x1="1"
       x2="47"
       gradientUnits="userSpaceOnUse"
       gradientTransform="rotate(-90,23.999998,24)">
      <stop
         style="stop-color:#ed4141;stop-opacity:1"
         id="stop2-63" />
      <stop
         offset="1"
         style="stop-color:#ef5353;stop-opacity:1"
         id="stop4-2" />
    </linearGradient>
    <linearGradient
       id="linearGradient3764-0-9"
       x1="1"
       x2="47"
       gradientUnits="userSpaceOnUse"
       gradientTransform="rotate(-90,23.999998,24)">
      <stop
         style="stop-color:#ed4141;stop-opacity:1"
         id="stop2-63-5" />
      <stop
         offset="1"
         style="stop-color:#ef5353;stop-opacity:1"
         id="stop4-2-0" />
    </linearGradient>
    <linearGradient
       id="linearGradient3800-4"
       x1="1"
       x2="47"
       gradientUnits="userSpaceOnUse">
      <stop
         style="stop-color:#51627c;stop-opacity:1"
         id="stop2-6-8" />
      <stop
         offset="1"
         style="stop-color:#596b87;stop-opacity:1"
         id="stop4-1-1" />
    </linearGradient>
    <linearGradient
       id="linearGradient586"
       x1="1"
       x2="47"
       gradientUnits="userSpaceOnUse">
      <stop
         style="stop-color:#51627c;stop-opacity:1"
         id="stop582" />
      <stop
         offset="1"
         style="stop-color:#596b87;stop-opacity:1"
         id="stop584" />
    </linearGradient>
    <linearGradient
       id="linearGradient4232">
      <stop
         id="stop4234-0"
         offset="0"
         style="stop-color:#3889e9;stop-opacity:1" />
      <stop
         id="stop4236"
         offset="1"
         style="stop-color:#5ea5fb;stop-opacity:1" />
    </linearGradient>
    <linearGradient
       osb:paint="gradient"
       id="linearGradient4207">
      <stop
         id="stop3371"
         offset="0"
         style="stop-color:#3498db;stop-opacity:1;" />
      <stop
         id="stop3373"
         offset="1"
         style="stop-color:#3498db;stop-opacity:0;" />
    </linearGradient>
    <linearGradient
       id="linearGradient4227-2">
      <stop
         offset="0"
         style="stop-color:#566069;stop-opacity:1"
         id="stop4229-9" />
      <stop
         offset="1"
         style="stop-color:#6c7884;stop-opacity:1"
         id="stop4231-4" />
    </linearGradient>
  </defs>
  <g
     transform="translate(-83.071271,-18.398305)"
     id="g27-7">
    <g
       id="g25-5">
      <g
         transform="translate(1,1)"
         id="g23">
        <g
           style="opacity:0.1"
           id="g21">
          <!-- color: #3d3d3d -->
        </g>
      </g>
    </g>
  </g>
  <g
     transform="translate(-83.075271,-18.398305)"
     id="g31-9">
    <g
       id="g29-2">
      <!-- color: #3d3d3d -->
    </g>
  </g>
  <g
     transform="translate(-0.499,-0.5)"
     id="g15-0">
    <path
       inkscape:connector-curvature="0"
       d="m 36.31,5 c 5.859,4.062 9.688,10.831 9.688,18.5 0,12.426 -10.07,22.5 -22.5,22.5 -7.669,0 -14.438,-3.828 -18.5,-9.688 1.037,1.822 2.306,3.499 3.781,4.969 4.085,3.712 9.514,5.969 15.469,5.969 12.703,0 23,-10.298 23,-23 0,-5.954 -2.256,-11.384 -5.969,-15.469 C 39.81,7.306 38.132,6.037 36.31,5 Z m 4.969,3.781 c 3.854,4.113 6.219,9.637 6.219,15.719 0,12.703 -10.297,23 -23,23 -6.081,0 -11.606,-2.364 -15.719,-6.219 4.16,4.144 9.883,6.719 16.219,6.719 12.703,0 23,-10.298 23,-23 0,-6.335 -2.575,-12.06 -6.719,-16.219 z"
       style="opacity:0.05"
       id="path9-6" />
    <path
       inkscape:connector-curvature="0"
       d="m 41.28,8.781 c 3.712,4.085 5.969,9.514 5.969,15.469 0,12.703 -10.297,23 -23,23 -5.954,0 -11.384,-2.256 -15.469,-5.969 4.113,3.854 9.637,6.219 15.719,6.219 12.703,0 23,-10.298 23,-23 0,-6.081 -2.364,-11.606 -6.219,-15.719 z"
       style="opacity:0.1"
       id="path11-1" />
    <path
       inkscape:connector-curvature="0"
       d="M 31.25,2.375 C 39.865,5.529 46,13.792 46,23.505 c 0,12.426 -10.07,22.5 -22.5,22.5 -9.708,0 -17.971,-6.135 -21.12,-14.75 a 23,23 0 0 0 44.875,-7 23,23 0 0 0 -16,-21.875 z"
       style="opacity:0.2"
       id="path13-5" />
  </g>
  <g
     transform="translate(-0.499,-0.5)"
     id="g19-5">
    <path
       inkscape:connector-curvature="0"
       d="M 24,1 C 36.703,1 47,11.297 47,24 47,36.703 36.703,47 24,47 11.297,47 1,36.703 1,24 1,11.297 11.297,1 24,1 Z"
       style="fill:url(#linearGradient3764-0);fill-opacity:1"
       id="path17-4" />
  </g>
  <g
     transform="translate(-0.499,-0.5)"
     id="g23-7">
    <path
       inkscape:connector-curvature="0"
       d="m 40.03,7.531 c 3.712,4.084 5.969,9.514 5.969,15.469 0,12.703 -10.297,23 -23,23 C 17.045,46 11.615,43.744 7.53,40.031 11.708,44.322 17.54,47 23.999,47 c 12.703,0 23,-10.298 23,-23 0,-6.462 -2.677,-12.291 -6.969,-16.469 z"
       style="opacity:0.1"
       id="path21-6" />
  </g>
  <g
     transform="matrix(0.80628618,0,0,0.80628618,34.336594,32.500609)"
     id="g303-6"
     style="fill:#ffffff">
    <g
       id="g31-94-9"
       transform="translate(-48.90578,-34.262712)"
       style="fill:#ffffff">
      <g
         id="g29-7-3"
         style="fill:#ffffff">
        <g
           id="g27-8-7"
           transform="translate(1,1)"
           style="fill:#ffffff">
          <g
             id="g25-4-4"
             style="opacity:0.1;fill:#ffffff">
            <!-- color: #f3c72b -->
            <g
               id="g23-5-5"
               style="fill:#ffffff">
              <path
                 id="path21-0-2"
                 style="fill:#ffffff;fill-opacity:1;fill-rule:nonzero;stroke:none"
                 d="m 28.332,14 h 2.891 c 4.336,0 4.336,4.285 4.336,4.285 v 4.238 c 0,1.43 -2.895,4.336 -2.895,4.336 v 1.426 L 37,31.14 v 2.859 H 21.109 V 31.14 l 5.781,-2.855 v -1.426 c 0,0 -2.902,-2.902 -2.891,-4.336 v -4.238 c 0,0 0,-4.285 4.332,-4.285 m -10.11,2.859 h 2.887 v 5.668 c 0,1.43 2.895,4.336 2.895,4.336 l -5.777,2.855 v 2.859 l -7.223,-0.043 v -1.43 l 5.773,-2.816 v -1.426 c 0,0 -2.898,-2.898 -2.887,-4.332 v -1.387 c 0,-4.281 4.332,-4.281 4.332,-4.281 m 0,-0.008"
                 inkscape:connector-curvature="0" />
            </g>
          </g>
        </g>
      </g>
    </g>
    <g
       id="g39-5"
       transform="translate(-48.90578,-34.262712)"
       style="fill:#ffffff">
      <g
         id="g37-4"
         style="fill:#ffffff">
        <!-- color: #f3c72b -->
        <g
           id="g35-3-7"
           style="fill:#ffffff">
          <path
             id="path33-6-4"
             style="fill:#ffffff;fill-opacity:1;fill-rule:nonzero;stroke:none"
             d="m 28.332,14 h 2.891 c 4.336,0 4.336,4.285 4.336,4.285 v 4.238 c 0,1.43 -2.895,4.336 -2.895,4.336 v 1.426 L 37,31.14 v 2.859 H 21.109 V 31.14 l 5.781,-2.855 v -1.426 c 0,0 -2.902,-2.902 -2.891,-4.336 v -4.238 c 0,0 0,-4.285 4.332,-4.285 m -10.11,2.859 h 2.887 v 5.668 c 0,1.43 2.895,4.336 2.895,4.336 l -5.777,2.855 v 2.859 l -7.223,-0.043 v -1.43 l 5.773,-2.816 v -1.426 c 0,0 -2.898,-2.898 -2.887,-4.332 v -1.387 c 0,-4.281 4.332,-4.281 4.332,-4.281 m 0,-0.008"
             inkscape:connector-curvature="0" />
        </g>
      </g>
    </g>
  </g>
  <g
     id="layer1-2"
     inkscape:label="Capa 1"
     transform="translate(-541.51301,-487.57577)" />
  <g
     id="layer1-131"
     inkscape:label="Capa 1"
     transform="translate(-516.03072,-494.74743)">
    <g
       transform="matrix(1.6428572,0,0,1.6428572,-249.51024,-349.87017)"
       inkscape:label="Capa 1"
       id="layer1-1-8">
      <g
         transform="matrix(1.7090767,0,0,1.7090767,-365.37252,-370.54956)"
         id="layer1-7-3"
         inkscape:label="Capa 1">
        <g
           transform="matrix(1.0931221,0,0,1.0931221,33.310366,-50.486049)"
           id="g4471-6">
          <g
             transform="matrix(1.5444819,0,0,1.5444819,-275.38426,-295.80854)"
             id="layer1-39-1-21"
             inkscape:label="Capa 1" />
          <g
             inkscape:label="Capa 1"
             id="layer1-32-9"
             transform="matrix(0.91481089,0,0,0.91481089,-76.187461,46.864295)" />
          <g
             style="fill:#e7f0fa;fill-opacity:1"
             inkscape:label="Capa 1"
             id="layer1-5-1"
             transform="matrix(0.80800628,0,0,0.80800628,370.33012,-312.56174)">
            <g
               transform="matrix(1.2616535,0,0,1.2616535,-536.29645,371.40776)"
               id="layer1-6"
               inkscape:label="Capa 1"
               style="stroke:#424448;stroke-opacity:1">
              <g
                 inkscape:label="Capa 1"
                 id="layer1-7-8"
                 transform="translate(-14.140115,3.1569489)"
                 style="stroke:#424448;stroke-width:1.77703738;stroke-miterlimit:4;stroke-dasharray:none;stroke-opacity:1">
                <g
                   id="g4471-7"
                   transform="matrix(1.0931221,0,0,1.0931221,33.310366,-50.486049)"
                   style="stroke:#424448;stroke-width:1.62565315;stroke-miterlimit:4;stroke-dasharray:none;stroke-opacity:1">
                  <g
                     inkscape:label="Capa 1"
                     id="layer1-39-1-2"
                     transform="matrix(1.5444819,0,0,1.5444819,-275.38426,-295.80854)"
                     style="stroke:#424448;stroke-width:1.05255568;stroke-miterlimit:4;stroke-dasharray:none;stroke-opacity:1" />
                  <g
                     transform="matrix(0.91481089,0,0,0.91481089,-76.187461,46.864295)"
                     id="layer1-32-5"
                     inkscape:label="Capa 1"
                     style="stroke:#424448;stroke-width:1.77703738;stroke-miterlimit:4;stroke-dasharray:none;stroke-opacity:1" />
                  <g
                     inkscape:label="Capa 1"
                     id="layer1-13"
                     transform="matrix(0.91481089,0,0,0.91481089,-30.548999,50.916548)"
                     style="stroke:#424448;stroke-width:1.77703738;stroke-miterlimit:4;stroke-dasharray:none;stroke-opacity:1">
                    <g
                       id="g4471-1"
                       transform="matrix(1.0931221,0,0,1.0931221,33.310366,-50.486049)"
                       style="stroke:#424448;stroke-width:1.62565315;stroke-miterlimit:4;stroke-dasharray:none;stroke-opacity:1">
                      <g
                         inkscape:label="Capa 1"
                         id="layer1-39-17"
                         transform="matrix(1.5444819,0,0,1.5444819,-275.38426,-295.80854)"
                         style="stroke:#424448;stroke-width:1.05255568;stroke-miterlimit:4;stroke-dasharray:none;stroke-opacity:1" />
                      <g
                         transform="matrix(0.91481089,0,0,0.91481089,-76.187461,46.864295)"
                         id="layer1-32-7"
                         inkscape:label="Capa 1"
                         style="stroke:#424448;stroke-width:1.77703738;stroke-miterlimit:4;stroke-dasharray:none;stroke-opacity:1" />
                      <g
                         transform="matrix(0.84059015,0,0,0.84059015,-95.120107,25.210716)"
                         id="layer1-8"
                         inkscape:label="Capa 1"
                         style="stroke:#424448;stroke-width:1.93394268;stroke-miterlimit:4;stroke-dasharray:none;stroke-opacity:1">
                        <g
                           style="fill:#424448;fill-opacity:1;stroke:#424448;stroke-width:4.51099205;stroke-miterlimit:4;stroke-dasharray:none;stroke-opacity:1"
                           transform="matrix(0.06249531,0,0,0.06249531,561.80348,590.09373)"
                           sketch:type="MSLayerGroup"
                           id="chevron20" />
                      </g>
                    </g>
                  </g>
                </g>
              </g>
            </g>
          </g>
        </g>
      </g>
    </g>
  </g>
  <path
     inkscape:connector-curvature="0"
     style="fill:#ffffff;stroke:none;stroke-width:0.47377223"
     id="path7624"
     d="M 26.470046,22.551003 V 32.816786 H 41.833829 V 22.551003 Z" />
  <path
     inkscape:connector-curvature="0"
     style="fill:#ffffff;fill-rule:evenodd;stroke:none;stroke-width:0.47377223"
     id="rect2989"
     d="m 33.791895,15.05237 c -3.646441,0 -6.158479,2.328359 -6.158479,5.193744 v 3.151413 h 3.046724 l -0.01607,-2.718601 c -0.0102,-1.729567 1.037218,-3.029685 3.111654,-3.029685 2.074434,0 3.101698,1.346417 3.111652,3.029685 l 0.01607,2.718601 h 3.030723 v -3.151413 c 2.94e-4,-2.865385 -2.528192,-5.193744 -6.142298,-5.193744 z" />
</svg>
